{"name":"getUsers","id":"SerenityInitialTest:getUsers","testCaseName":"SerenityInitialTest","testSteps":[{"number":1,"description":"Santiago TAE Realiza la peticion Get","duration":2793,"startTime":"2020-11-04T19:21:52.229-05:00[America/Bogota]","result":"SUCCESS","precondition":false,"level":0,"children":[{"number":2,"description":"Santiago TAE executes a GET on the resource /api/users?page\u003d2","duration":2731,"startTime":"2020-11-04T19:21:52.286-05:00[America/Bogota]","result":"SUCCESS","precondition":false,"level":1,"children":[{"number":3,"description":"GET https://reqres.in/api/users?page\u003d2","duration":2,"startTime":"2020-11-04T19:21:55.012-05:00[America/Bogota]","result":"SUCCESS","restQuery":{"method":"GET","path":"https://reqres.in/api/users?page\u003d2","content":"","contentType":"application/json","requestHeaders":"fsf\u003ddf\n\t\t\t\tAccept\u003d*/*\n\t\t\t\tContent-Type\u003dapplication/json; charset\u003dUTF-8","requestCookies":"","responseHeaders":"Date: Thu, 05 Nov 2020 00:21:54 GMT\nContent-Type: application/json; charset\u003dutf-8\nTransfer-Encoding: chunked\nConnection: keep-alive\nSet-Cookie: __cfduid\u003dd5d8a16918e41bff7f6ad958a4e22c90c1604535714; expires\u003dSat, 05-Dec-20 00:21:54 GMT; path\u003d/; domain\u003d.reqres.in; HttpOnly; SameSite\u003dLax; Secure\nX-Powered-By: Express\nAccess-Control-Allow-Origin: *\nEtag: W/\"4dd-IPv5LdOOb6s5S9E3i59wBCJ1k/0\"\nVia: 1.1 vegur\nCache-Control: max-age\u003d14400\nCF-Cache-Status: HIT\nAge: 3648\ncf-request-id: 0637611bf7000011a5779f3000000001\nExpect-CT: max-age\u003d604800, report-uri\u003d\"https://report-uri.cloudflare.com/cdn-cgi/beacon/expect-ct\"\nReport-To: {\"endpoints\":[{\"url\":\"https:\\/\\/a.nel.cloudflare.com\\/report?s\u003d0HOsuZm5bU3QBjZWarGa26YvQ5kGq4jyOBnvfOrxMcnviTrMImtHiC4syw1l3cBYRts4CHMQ3vEYUCGyoPNXU7Bro7jb49XdgKY%3D\"}],\"group\":\"cf-nel\",\"max_age\":604800}\nNEL: {\"report_to\":\"cf-nel\",\"max_age\":604800}\nVary: Accept-Encoding\nServer: cloudflare\nCF-RAY: 5ed26ad9882911a5-MIA\nContent-Encoding: gzip","responseCookies":"__cfduid\u003dd5d8a16918e41bff7f6ad958a4e22c90c1604535714;Path\u003d/;Domain\u003d.reqres.in;Secure;HttpOnly;Expires\u003d12/5/20 12:21 AM","responseBody":"{\n    \"page\": 2,\n    \"per_page\": 6,\n    \"total\": 12,\n    \"total_pages\": 2,\n    \"data\": [\n        {\n            \"id\": 7,\n            \"email\": \"michael.lawson@reqres.in\",\n            \"first_name\": \"Michael\",\n            \"last_name\": \"Lawson\",\n            \"avatar\": \"https://s3.amazonaws.com/uifaces/faces/twitter/follettkyle/128.jpg\"\n        },\n        {\n            \"id\": 8,\n            \"email\": \"lindsay.ferguson@reqres.in\",\n            \"first_name\": \"Lindsay\",\n            \"last_name\": \"Ferguson\",\n            \"avatar\": \"https://s3.amazonaws.com/uifaces/faces/twitter/araa3185/128.jpg\"\n        },\n        {\n            \"id\": 9,\n            \"email\": \"tobias.funke@reqres.in\",\n            \"first_name\": \"Tobias\",\n            \"last_name\": \"Funke\",\n            \"avatar\": \"https://s3.amazonaws.com/uifaces/faces/twitter/vivekprvr/128.jpg\"\n        },\n        {\n            \"id\": 10,\n            \"email\": \"byron.fields@reqres.in\",\n            \"first_name\": \"Byron\",\n            \"last_name\": \"Fields\",\n            \"avatar\": \"https://s3.amazonaws.com/uifaces/faces/twitter/russoedu/128.jpg\"\n        },\n        {\n            \"id\": 11,\n            \"email\": \"george.edwards@reqres.in\",\n            \"first_name\": \"George\",\n            \"last_name\": \"Edwards\",\n            \"avatar\": \"https://s3.amazonaws.com/uifaces/faces/twitter/mrmoiree/128.jpg\"\n        },\n        {\n            \"id\": 12,\n            \"email\": \"rachel.howell@reqres.in\",\n            \"first_name\": \"Rachel\",\n            \"last_name\": \"Howell\",\n            \"avatar\": \"https://s3.amazonaws.com/uifaces/faces/twitter/hebertialmeida/128.jpg\"\n        }\n    ],\n    \"ad\": {\n        \"company\": \"StatusCode Weekly\",\n        \"url\": \"http://statuscode.org/\",\n        \"text\": \"A weekly newsletter focusing on software development, infrastructure, the server, performance, and the stack end of things.\"\n    }\n}","statusCode":200},"precondition":false,"level":2}]}]},{"number":4,"description":"Then el codigo de respuesta should be (200)","duration":17,"startTime":"2020-11-04T19:21:55.119-05:00[America/Bogota]","result":"SUCCESS","precondition":false,"level":0},{"number":5,"description":"Then usuario no es nulo should be not null","duration":0,"startTime":"2020-11-04T19:21:55.184-05:00[America/Bogota]","result":"SUCCESS","precondition":false,"level":0},{"number":6,"description":"Then el email del usuario  should be \u0027tobias.funke@reqres.in\u0027","duration":0,"startTime":"2020-11-04T19:21:55.186-05:00[America/Bogota]","result":"SUCCESS","precondition":false,"level":0}],"userStory":{"id":"SerenityInitialTest","storyName":"Serenity initial test","storyClassName":"SerenityInitialTest","path":"","type":"story"},"featureTag":{"name":"Serenity initial test","type":"story","displayName":"Serenity initial test"},"title":"Get users","tags":[{"name":"Serenity initial test","type":"story","displayName":"Serenity initial test"}],"startTime":"2020-11-04T19:21:52.045-05:00[America/Bogota]","duration":3142,"projectKey":"","manual":false,"testSource":"JUnit","actors":[{"name":"Santiago TAE","can":["call an API at https://reqres.in"]}],"result":"SUCCESS"}